…
``` r
difference_in_zipcodes_df = 
  anti_join(zip_codes_df, zillow_rent_df)
```

    ## Joining with `by = join_by(zip_code)`

``` r
difference_in_zipcodes_df
```

    ## # A tibble: 34 × 7
    ##    county   state_fips county_code county_fips zip_code file_date  neighborhood 
    ##    <chr>         <dbl> <chr>             <dbl>    <dbl> <date>     <chr>        
    ##  1 Bronx            36 005               36005    10464 2007-07-25 Southeast Br…
    ##  2 Bronx            36 005               36005    10474 2007-07-25 Hunts Point …
    ##  3 Bronx            36 005               36005    10475 2007-07-25 Northeast Br…
    ##  4 Kings            36 047               36047    11224 2007-07-25 Southern Bro…
    ##  5 Kings            36 047               36047    11239 2007-07-25 Canarsie and…
    ##  6 New York         36 061               36061    10020 2007-07-25 Chelsea and …
    ##  7 Queens           36 081               36081    11004 2007-07-25 Southeast Qu…
    ##  8 Queens           36 081               36081    11005 2007-07-25 Southeast Qu…
    ##  9 Queens           36 081               36081    11359 2007-07-25 North Queens 
    ## 10 Queens           36 081               36081    11362 2007-07-25 Northeast Qu…
    ## # ℹ 24 more rows

``` r
zip_not_in_zillow =
  zip_codes_df |>
  filter(!zip_code %in% zillow_rent_df$zip_code)
zip_not_in_zillow
```

    ## # A tibble: 34 × 7
    ##    county   state_fips county_code county_fips zip_code file_date  neighborhood 
    ##    <chr>         <dbl> <chr>             <dbl>    <dbl> <date>     <chr>        
    ##  1 Bronx            36 005               36005    10464 2007-07-25 Southeast Br…
    ##  2 Bronx            36 005               36005    10474 2007-07-25 Hunts Point …
    ##  3 Bronx            36 005               36005    10475 2007-07-25 Northeast Br…
    ##  4 Kings            36 047               36047    11224 2007-07-25 Southern Bro…
    ##  5 Kings            36 047               36047    11239 2007-07-25 Canarsie and…
    ##  6 New York         36 061               36061    10020 2007-07-25 Chelsea and …
    ##  7 Queens           36 081               36081    11004 2007-07-25 Southeast Qu…
    ##  8 Queens           36 081               36081    11005 2007-07-25 Southeast Qu…
    ##  9 Queens           36 081               36081    11359 2007-07-25 North Queens 
    ## 10 Queens           36 081               36081    11362 2007-07-25 Northeast Qu…
    ## # ℹ 24 more rows
…
